…
``` r
filter(gapminder, country %in% c("Rwanda", "Afghanistan"))
```

    # A tibble: 24 × 6
       country     continent  year lifeExp      pop gdpPercap
       <fct>       <fct>     <int>   <dbl>    <int>     <dbl>
     1 Afghanistan Asia       1952    28.8  8425333      779.
     2 Afghanistan Asia       1957    30.3  9240934      821.
     3 Afghanistan Asia       1962    32.0 10267083      853.
     4 Afghanistan Asia       1967    34.0 11537966      836.
     5 Afghanistan Asia       1972    36.1 13079460      740.
     6 Afghanistan Asia       1977    38.4 14880372      786.
     7 Afghanistan Asia       1982    39.9 12881816      978.
     8 Afghanistan Asia       1987    40.8 13867957      852.
     9 Afghanistan Asia       1992    41.7 16317921      649.
    10 Afghanistan Asia       1997    41.8 22227415      635.
    # ℹ 14 more rows
…
You are probably not impressed yet, but the magic will soon happen.

### Use `select()` to subset the data on variables or columns.

Back to `dplyr` …

Use `select()` to subset the data on variables or columns. Here’s a
conventional call:

``` r
select(gapminder, year, lifeExp) ## tbl_df prevents TMI from printing
```

    # A tibble: 1,704 × 2
        year lifeExp
       <int>   <dbl>
     1  1952    28.8
     2  1957    30.3
     3  1962    32.0
     4  1967    34.0
     5  1972    36.1
     6  1977    38.4
     7  1982    39.9
     8  1987    40.8
     9  1992    41.7
    10  1997    41.8
    # ℹ 1,694 more rows
…
### Use `arrange()` to row-order data in a principled way

Imagine you wanted this data ordered by the variable you just made.

``` r
gapminder_gdp_billions |>
  arrange(gdp_billion)
```

    # A tibble: 1,704 × 7
       country               continent  year lifeExp    pop gdpPercap gdp_billion
       <fct>                 <fct>     <int>   <dbl>  <int>     <dbl>       <dbl>
     1 Sao Tome and Principe Africa     1952    46.5  60011      880.      0.0528
     2 Sao Tome and Principe Africa     1957    48.9  61325      861.      0.0528
     3 Sao Tome and Principe Africa     1962    51.9  65345     1072.      0.0700
     4 Equatorial Guinea     Africa     1952    34.5 216964      376.      0.0815
     5 Sao Tome and Principe Africa     1967    54.4  70787     1385.      0.0980
     6 Equatorial Guinea     Africa     1957    36.0 232922      426.      0.0992
     7 Sao Tome and Principe Africa     1972    56.5  76595     1533.      0.117 
     8 Gambia                Africa     1952    30   284320      485.      0.138 
     9 Equatorial Guinea     Africa     1962    37.5 249220      583.      0.145 
    10 Sao Tome and Principe Africa     1977    58.6  86796     1738.      0.151 
    # ℹ 1,694 more rows

Or maybe you want just the data from 2007, sorted on life expectancy?

``` r
gapminder |>
  filter(year == 2007) |>
  arrange(lifeExp)
```

    # A tibble: 142 × 6
       country                  continent  year lifeExp      pop gdpPercap
       <fct>                    <fct>     <int>   <dbl>    <int>     <dbl>
     1 Swaziland                Africa     2007    39.6  1133066     4513.
     2 Mozambique               Africa     2007    42.1 19951656      824.
     3 Zambia                   Africa     2007    42.4 11746035     1271.
     4 Sierra Leone             Africa     2007    42.6  6144562      863.
     5 Lesotho                  Africa     2007    42.6  2012649     1569.
     6 Angola                   Africa     2007    42.7 12420476     4797.
     7 Zimbabwe                 Africa     2007    43.5 12311143      470.
     8 Afghanistan              Asia       2007    43.8 31889923      975.
     9 Central African Republic Africa     2007    44.7  4369038      706.
    10 Liberia                  Africa     2007    45.7  3193942      415.
    # ℹ 132 more rows

Oh, you’d like to sort on life expectancy in descending order? Then use
`desc()`.

``` r
gapminder |>
  filter(year == 2007) |>
  arrange(desc(lifeExp))
```

    # A tibble: 142 × 6
       country          continent  year lifeExp       pop gdpPercap
       <fct>            <fct>     <int>   <dbl>     <int>     <dbl>
     1 Japan            Asia       2007    82.6 127467972    31656.
     2 Hong Kong, China Asia       2007    82.2   6980412    39725.
     3 Iceland          Europe     2007    81.8    301931    36181.
     4 Switzerland      Europe     2007    81.7   7554661    37506.
     5 Australia        Oceania    2007    81.2  20434176    34435.
     6 Spain            Europe     2007    80.9  40448191    28821.
     7 Sweden           Europe     2007    80.9   9031088    33860.
     8 Israel           Asia       2007    80.7   6426679    25523.
     9 France           Europe     2007    80.7  61083916    30470.
    10 Canada           Americas   2007    80.7  33390141    36319.
    # ℹ 132 more rows
…
You can also use `select()` to **select and rename** variables, but
notice the difference between the resulting data frames.

``` r
gapminder |>
  select(life_exp = lifeExp,
         gdp_percap = gdpPercap)
```

    # A tibble: 1,704 × 2
       life_exp gdp_percap
          <dbl>      <dbl>
     1     28.8       779.
     2     30.3       821.
     3     32.0       853.
     4     34.0       836.
     5     36.1       740.
     6     38.4       786.
     7     39.9       978.
     8     40.8       852.
     9     41.7       649.
    10     41.8       635.
    # ℹ 1,694 more rows
…
